1	0	1	0	1	0	1	0	1	0
0.471455532	0.906999883	0.568412361	0.834894065	0.640835103	0.705489875	0.7160887	0.691326232	0.720570889	0.651059347
0.225288983	0.97705724	0.399386648	0.925084865	0.526775183	0.900386281	0.552606747	0.854851926	0.558386412	0.710698818
0.100967209	0.987241016	0.272823779	0.96810254	0.369426752	0.938312068	0.453526775	0.909867728	0.514154282	0.903137071
0.046827082	0.993679035	0.159471573	0.982734402	0.261264449	0.968980452	0.346072187	0.962425378	0.388535032	0.939833782
0.02111347	0.996254243	0.088818117	0.989933279	0.166666667	0.982617348	0.230125029	0.975418471	0.289690965	0.969273089
0.009907997	0.999122088	0.046119368	0.993971673	0.095187544	0.988587147	0.144963435	0.984782863	0.189785327	0.982734402
0.004246285	0.999707363	0.020759613	0.996371298	0.048596367	0.994088728	0.080207596	0.990635608	0.110167492	0.988353038
8.26E-04	0.999941473	0.008492569	0.999297671	0.018872376	0.996663935	0.033498467	0.995259277	0.050837462	0.993035234
0	1	0	1	0	1	0	1	0	1