The number of scored datasets	6
CTD_human	12.20211188395201
UNIPROT	15.99129269081414
PSYGENET	7.697520317210434
ORPHANET	14.327374814496643
CLINGEN	13.367783640243493
GENOMICS_ENGLAND	15.70161579138727
